…
Studio (adventure, magic) –> same
Studio (premier, choice) –> BLT higher
Studio (dream)–> BC higher

1-BD (premier,dream) –> same
1-BD (magic,choice,adventure) –> BLT higher

2-BD –> BLT always higher

#15 combinations of room & season (3x5)
#some ties kept
  comp %>% group_by(room,season,weekday) %>% top_n(1,points) %>% arrange(room,season,weekday)

## # A tibble: 39 x 5
## # Groups:   room, season, weekday [30]
##    room      season    weekday points resort    
##    <chr>     <chr>     <chr>    <dbl> <fct>     
##  1 1-Bedroom adventure Fri_Sat     32 BLT       
##  2 1-Bedroom adventure Sun_Th      27 Beach Club
##  3 1-Bedroom choice    Fri_Sat     35 BLT       
##  4 1-Bedroom choice    Sun_Th      29 Beach Club
##  5 1-Bedroom dream     Fri_Sat     40 Beach Club
##  6 1-Bedroom dream     Fri_Sat     40 BLT       
##  7 1-Bedroom dream     Sun_Th      35 Beach Club
##  8 1-Bedroom magic     Fri_Sat     44 BLT       
##  9 1-Bedroom magic     Sun_Th      37 Beach Club
## 10 1-Bedroom premier   Fri_Sat     56 Beach Club
## # … with 29 more rows
…
