…
AFINN lexicon provides a positivity score for each word, from -5 (most negative) to 5 (most positive)

##gives word and score 
afinn <- sentiments %>%
  filter(lexicon == "AFINN") %>%
  select(word, afinn_score = score)

reviews_sentiment <- rdf_tidy %>%
  inner_join(afinn, by = "word") %>%  
 group_by(review_num, rating) %>%
summarize(sentiment = mean(afinn_score))
 reviews_sentiment

## # A tibble: 2,328 x 3
## # Groups:   review_num [?]
##    review_num rating sentiment
##         <int> <fct>      <dbl>
##  1          1 5           2.14
##  2          2 5           2.5 
##  3          3 5           2.29
##  4          4 5           1.5 
##  5          5 5           1.4 
##  6          6 3           3   
##  7          7 5           1.16
##  8          8 5           2.2 
##  9          9 4          -1   
## 10         10 5           2.06
## # … with 2,318 more rows
…
