…
# Order restaurants by median number of calories
# cals = aggregate(calories ~ restaurant, median, data=salad)
# cals = cals[order(cals$calories, decreasing = T),]
# salad$restaurant = factor(salad$restaurant, levels=as.character(cals$restaurant))

#items containing bacon
food[str_detect(food$item, "[Bb]acon|BLT|B.L.T"),] 

## # A tibble: 54 x 16
##    restaurant item  calories cal_fat total_fat sat_fat trans_fat
##    <fct>      <chr>    <dbl>   <dbl>     <dbl>   <dbl>     <dbl>
##  1 Mcdonalds  Sing…      840     410        45      17       1.5
##  2 Mcdonalds  Doub…     1130     600        67      27       3  
##  3 Mcdonalds  Gril…      750     280        31      10       0.5
##  4 Mcdonalds  Cris…      920     410        45      12       0.5
##  5 Mcdonalds  Mapl…      640     330        36      14       1.5
##  6 Mcdonalds  Gril…      580     190        21       8       0  
##  7 Mcdonalds  Cris…      740     310        35       9       0.5
##  8 Mcdonalds  Swee…      690     340        37      14       1.5
##  9 Mcdonalds  Gril…      630     200        22       7       0  
## 10 Mcdonalds  Cris…      800     320        36       9       0.5
## # … with 44 more rows, and 9 more variables: cholesterol <dbl>,
## #   sodium <dbl>, total_carb <dbl>, fiber <dbl>, sugar <dbl>,
## #   protein <dbl>, vit_a <dbl>, vit_c <dbl>, calcium <dbl>
…
## # A tibble: 2 x 16
##   restaurant item  calories cal_fat total_fat sat_fat trans_fat cholesterol
##   <fct>      <chr>    <dbl>   <dbl>     <dbl>   <dbl>     <dbl>       <dbl>
## 1 Taco Bell  Chil…      380     150        17       8         1          35
## 2 Taco Bell  Expr…      580     260        29       9         1          60
## # … with 8 more variables: sodium <dbl>, total_carb <dbl>, fiber <dbl>,
## #   sugar <dbl>, protein <dbl>, vit_a <dbl>, vit_c <dbl>, calcium <dbl>

##remove duplicate items
food<-food %>% distinct(restaurant,item,.keep_all = T)

food<-food %>% mutate(item_num = row_number())
food

## # A tibble: 513 x 17
##    restaurant item  calories cal_fat total_fat sat_fat trans_fat
##    <fct>      <chr>    <dbl>   <dbl>     <dbl>   <dbl>     <dbl>
##  1 Mcdonalds  Arti…      380      60         7       2       0  
##  2 Mcdonalds  Sing…      840     410        45      17       1.5
##  3 Mcdonalds  Doub…     1130     600        67      27       3  
##  4 Mcdonalds  Gril…      750     280        31      10       0.5
##  5 Mcdonalds  Cris…      920     410        45      12       0.5
##  6 Mcdonalds  Big …      540     250        28      10       1  
##  7 Mcdonalds  Chee…      300     100        12       5       0.5
##  8 Mcdonalds  Clas…      510     210        24       4       0  
##  9 Mcdonalds  Doub…      430     190        21      11       1  
## 10 Mcdonalds  Doub…      770     400        45      21       2.5
## # … with 503 more rows, and 10 more variables: cholesterol <dbl>,
## #   sodium <dbl>, total_carb <dbl>, fiber <dbl>, sugar <dbl>,
## #   protein <dbl>, vit_a <dbl>, vit_c <dbl>, calcium <dbl>, item_num <int>
…
(word_cal<-food_words %>% group_by(word) %>% filter(length(word)>2) %>% mutate(cal_fat_perc=cal_fat/calories) %>% 
  summarize(freq = n(),avg_cal=mean(calories),avg_cal_fat=mean(cal_fat), avg_calfat_perc=mean(cal_fat_perc)) %>% arrange(avg_cal))

## # A tibble: 163 x 5
##    word    freq avg_cal avg_cal_fat avg_calfat_perc
##    <chr>  <int>   <dbl>       <dbl>           <dbl>
##  1 kids       4    178.        20             0.112
##  2 locos      6    183.        95             0.519
##  3 mini       6    183.        43.3           0.227
##  4 soft       8    196.        76.2           0.369
##  5 delite     4    222.        21.2           0.118
##  6 fresco     7    234.        62.9           0.288
##  7 garden     5    286        134             0.450
##  8 chick      5    288        124.            0.433
##  9 forest     4    290         41.2           0.154
## 10 ham        9    291.        48.9           0.183
## # … with 153 more rows
…
## # A tibble: 3 x 2
## # Groups:   tfat_cat [3]
##   tfat_cat      n
##   <chr>     <int>
## 1 high        174
## 2 low          65
## 3 "medium "   268

(rest_fat<-food %>% group_by(restaurant,tfat_cat) %>% count() %>% 
##add missing low category for BK, Sonic
complete(restaurant,tfat_cat) %>% unique()%>% mutate(n=replace(n,is.na(n), 0)))

## # A tibble: 24 x 3
## # Groups:   restaurant, tfat_cat [24]
##    restaurant  tfat_cat     n
##    <fct>       <chr>    <dbl>
##  1 Arbys       high        25
##  2 Burger King high        35
##  3 Chick Fil-A high         3
##  4 Dairy Queen high        17
##  5 Mcdonalds   high        23
##  6 Sonic       high        29
##  7 Subway      high        21
##  8 Taco Bell   high        21
##  9 Arbys       low          5
## 10 Burger King low          0
## # … with 14 more rows
…
